{
  "project_info": {
    "project_number": "136760807080",
    "project_id": "athena-34153",
    "storage_bucket": "athena-34153.appspot.com"
  },
  "client": [
    {
      "client_info": {
        "mobilesdk_app_id": "1:136760807080:android:b19055bc94c809a8773c9d",
        "android_client_info": {
          "package_name": "org.blocksoft.blockbox"
        }
      },
      "oauth_client": [
        {
          "client_id": "136760807080-r8jr5jhjhq0cbsjro70i25pboa1tsnag.apps.googleusercontent.com",
          "client_type": 1,
          "android_info": {
            "package_name": "org.blocksoft.blockbox",
            "certificate_hash": "9d86a227b233754516c8f9220b8b0b1f787bdc69"
          }
        },
        {
          "client_id": "136760807080-cdmhv2a6d3mascmsam6m09erbmosicsv.apps.googleusercontent.com",
          "client_type": 3
        }
      ],
      "api_key": [
        {
          "current_key": "AIzaSyACK5hpQPv9TBqIKrTh-LfH4Zy1PSQYY2M"
        }
      ],
      "services": {
        "appinvite_service": {
          "other_platform_oauth_client": [
            {
              "client_id": "136760807080-cdmhv2a6d3mascmsam6m09erbmosicsv.apps.googleusercontent.com",
              "client_type": 3
            }
          ]
        }
      }
    }
  ],
  "configuration_version": "1"
}